-------------------------------------------------------------------------------
Test set: com.everwell.registryservice.controller.TestControllerTests
-------------------------------------------------------------------------------
Tests run: 1, Failures: 0, Errors: 0, Skipped: 0, Time elapsed: 0.059 s - in com.everwell.registryservice.controller.TestControllerTests
