-------------------------------------------------------------------------------
Test set: com.everwell.registryservice.controller.TaskListControllerTest
-------------------------------------------------------------------------------
Tests run: 19, Failures: 0, Errors: 0, Skipped: 0, Time elapsed: 1.422 s - in com.everwell.registryservice.controller.TaskListControllerTest
