-------------------------------------------------------------------------------
Test set: com.everwell.registryservice.controller.UserControllerTest
-------------------------------------------------------------------------------
Tests run: 9, Failures: 0, Errors: 0, Skipped: 0, Time elapsed: 2.217 s - in com.everwell.registryservice.controller.UserControllerTest
