-------------------------------------------------------------------------------
Test set: com.everwell.registryservice.controller.HierarchyControllerTest
-------------------------------------------------------------------------------
Tests run: 23, Failures: 0, Errors: 0, Skipped: 0, Time elapsed: 1.539 s - in com.everwell.registryservice.controller.HierarchyControllerTest
