-------------------------------------------------------------------------------
Test set: com.everwell.registryservice.service.EpisodeServiceTest
-------------------------------------------------------------------------------
Tests run: 6, Failures: 0, Errors: 0, Skipped: 0, Time elapsed: 0.59 s - in com.everwell.registryservice.service.EpisodeServiceTest
