-------------------------------------------------------------------------------
Test set: com.everwell.registryservice.service.INSServiceTest
-------------------------------------------------------------------------------
Tests run: 6, Failures: 0, Errors: 0, Skipped: 0, Time elapsed: 0.474 s - in com.everwell.registryservice.service.INSServiceTest
