-------------------------------------------------------------------------------
Test set: com.everwell.registryservice.handler.JobHandlerTest
-------------------------------------------------------------------------------
Tests run: 1, Failures: 0, Errors: 0, Skipped: 0, Time elapsed: 4.38 s - in com.everwell.registryservice.handler.JobHandlerTest
