-------------------------------------------------------------------------------
Test set: com.everwell.registryservice.handler.SpringEventsAnalyticsHandlerTest
-------------------------------------------------------------------------------
Tests run: 2, Failures: 0, Errors: 0, Skipped: 0, Time elapsed: 0.834 s - in com.everwell.registryservice.handler.SpringEventsAnalyticsHandlerTest
