-------------------------------------------------------------------------------
Test set: com.everwell.registryservice.service.DataGatewayServiceTest
-------------------------------------------------------------------------------
Tests run: 10, Failures: 0, Errors: 0, Skipped: 0, Time elapsed: 0.111 s - in com.everwell.registryservice.service.DataGatewayServiceTest
