<?xml version="1.0" encoding="UTF-8"?>
<testsuite xmlns:xsi="http://www.w3.org/2001/XMLSchema-instance" xsi:noNamespaceSchemaLocation="https://maven.apache.org/surefire/maven-surefire-plugin/xsd/surefire-test-report.xsd" name="com.everwell.registryservice.service.EngagementServiceTest" time="1.565" tests="23" errors="0" skipped="0" failures="0">
  <properties>
    <property name="gopherProxySet" value="false"/>
    <property name="awt.toolkit" value="sun.lwawt.macosx.LWCToolkit"/>
    <property name="java.specification.version" value="11"/>
    <property name="sun.cpu.isalist" value=""/>
    <property name="sun.jnu.encoding" value="UTF-8"/>
    <property name="java.class.path" value="/usr/local/Cellar/maven/3.6.0/libexec/boot/plexus-classworlds-2.5.2.jar"/>
    <property name="java.vm.vendor" value="Oracle Corporation"/>
    <property name="sun.arch.data.model" value="64"/>
    <property name="java.vendor.url" value="http://java.oracle.com/"/>
    <property name="user.timezone" value="Asia/Kolkata"/>
    <property name="maven.conf" value="/usr/local/Cellar/maven/3.6.0/libexec/conf"/>
    <property name="os.name" value="Mac OS X"/>
    <property name="java.vm.specification.version" value="11"/>
    <property name="sun.java.launcher" value="SUN_STANDARD"/>
    <property name="user.country" value="GB"/>
    <property name="sun.boot.library.path" value="/Library/Java/JavaVirtualMachines/openjdk-11.0.2.jdk/Contents/Home/lib"/>
    <property name="sun.java.command" value="org.codehaus.plexus.classworlds.launcher.Launcher clean install -Plocal"/>
    <property name="http.nonProxyHosts" value="local|*.local|169.254/16|*.169.254/16"/>
    <property name="jdk.debug" value="release"/>
    <property name="maven.home" value="/usr/local/Cellar/maven/3.6.0/libexec"/>
    <property name="sun.cpu.endian" value="little"/>
    <property name="user.home" value="/Users/soumabharaychaudhuri"/>
    <property name="user.language" value="en"/>
    <property name="java.specification.vendor" value="Oracle Corporation"/>
    <property name="java.version.date" value="2019-01-15"/>
    <property name="java.home" value="/Library/Java/JavaVirtualMachines/openjdk-11.0.2.jdk/Contents/Home"/>
    <property name="file.separator" value="/"/>
    <property name="java.vm.compressedOopsMode" value="Zero based"/>
    <property name="line.separator" value="&#10;"/>
    <property name="java.specification.name" value="Java Platform API Specification"/>
    <property name="java.vm.specification.vendor" value="Oracle Corporation"/>
    <property name="java.awt.graphicsenv" value="sun.awt.CGraphicsEnvironment"/>
    <property name="sun.management.compiler" value="HotSpot 64-Bit Tiered Compilers"/>
    <property name="ftp.nonProxyHosts" value="local|*.local|169.254/16|*.169.254/16"/>
    <property name="java.runtime.version" value="11.0.2+9"/>
    <property name="user.name" value="soumabharaychaudhuri"/>
    <property name="path.separator" value=":"/>
    <property name="os.version" value="10.16"/>
    <property name="java.runtime.name" value="OpenJDK Runtime Environment"/>
    <property name="file.encoding" value="UTF-8"/>
    <property name="guice.disable.misplaced.annotation.check" value="true"/>
    <property name="java.vm.name" value="OpenJDK 64-Bit Server VM"/>
    <property name="java.vendor.version" value="18.9"/>
    <property name="java.vendor.url.bug" value="http://bugreport.java.com/bugreport/"/>
    <property name="java.io.tmpdir" value="/var/folders/3x/mb6gb8k9415f4ll9rfsb2fx80000gn/T/"/>
    <property name="java.version" value="11.0.2"/>
    <property name="user.dir" value="/Users/soumabharaychaudhuri/Development/registryservice"/>
    <property name="os.arch" value="x86_64"/>
    <property name="maven.multiModuleProjectDirectory" value="/Users/soumabharaychaudhuri/Development/registryservice"/>
    <property name="java.vm.specification.name" value="Java Virtual Machine Specification"/>
    <property name="java.awt.printerjob" value="sun.lwawt.macosx.CPrinterJob"/>
    <property name="sun.os.patch.level" value="unknown"/>
    <property name="java.library.path" value="/Users/soumabharaychaudhuri/Library/Java/Extensions:/Library/Java/Extensions:/Network/Library/Java/Extensions:/System/Library/Java/Extensions:/usr/lib/java:."/>
    <property name="java.vendor" value="Oracle Corporation"/>
    <property name="java.vm.info" value="mixed mode"/>
    <property name="java.vm.version" value="11.0.2+9"/>
    <property name="classworlds.conf" value="/usr/local/Cellar/maven/3.6.0/libexec/bin/m2.conf"/>
    <property name="sun.io.unicode.encoding" value="UnicodeBig"/>
    <property name="library.jansi.path" value="/usr/local/Cellar/maven/3.6.0/libexec/lib/jansi-native"/>
    <property name="java.class.version" value="55.0"/>
    <property name="socksNonProxyHosts" value="local|*.local|169.254/16|*.169.254/16"/>
  </properties>
  <testcase name="addEngagement_invalidDoseTime" classname="com.everwell.registryservice.service.EngagementServiceTest" time="0.012"/>
  <testcase name="addEngagement_engagementAlreadyExist" classname="com.everwell.registryservice.service.EngagementServiceTest" time="0.004"/>
  <testcase name="getLanguagesTestHierarchyNotFound" classname="com.everwell.registryservice.service.EngagementServiceTest" time="1.085"/>
  <testcase name="updateLanguagesSuccessEngagementNull" classname="com.everwell.registryservice.service.EngagementServiceTest" time="0.011"/>
  <testcase name="addEngagement_invalidLanguageId" classname="com.everwell.registryservice.service.EngagementServiceTest" time="0.004"/>
  <testcase name="getEngagement_Parent_Success" classname="com.everwell.registryservice.service.EngagementServiceTest" time="0.006"/>
  <testcase name="updateLanguagesSuccess" classname="com.everwell.registryservice.service.EngagementServiceTest" time="0.005"/>
  <testcase name="addEngagement_hierarchyNotFound" classname="com.everwell.registryservice.service.EngagementServiceTest" time="0.003"/>
  <testcase name="getLanguagesTestSuccess" classname="com.everwell.registryservice.service.EngagementServiceTest" time="0.003"/>
  <testcase name="addEngagement_getEngagementException" classname="com.everwell.registryservice.service.EngagementServiceTest" time="0.006"/>
  <testcase name="getEngagement_Success" classname="com.everwell.registryservice.service.EngagementServiceTest" time="0.003"/>
  <testcase name="getEngagement_hierarchyNotFound" classname="com.everwell.registryservice.service.EngagementServiceTest" time="0.004"/>
  <testcase name="updateLanguageHierarchyNotFound" classname="com.everwell.registryservice.service.EngagementServiceTest" time="0.008"/>
  <testcase name="getLanguagesTestSuccessLevel1Hierarchy" classname="com.everwell.registryservice.service.EngagementServiceTest" time="0.003"/>
  <testcase name="updateLanguagesSuccessDisabledLanguageIdNull" classname="com.everwell.registryservice.service.EngagementServiceTest" time="0.006"/>
  <testcase name="getLanguageEngagementNotFound" classname="com.everwell.registryservice.service.EngagementServiceTest" time="0.004"/>
  <testcase name="updateLanguageNoEngagementFound" classname="com.everwell.registryservice.service.EngagementServiceTest" time="0.008"/>
  <testcase name="updateLanguagesInvalidLanguageId" classname="com.everwell.registryservice.service.EngagementServiceTest" time="0.003"/>
  <testcase name="updateLanguageTest_LanguageResponseBodyNull" classname="com.everwell.registryservice.service.EngagementServiceTest" time="0.004"/>
  <testcase name="addEngagement_invalidDefaultTime" classname="com.everwell.registryservice.service.EngagementServiceTest" time="0.002"/>
  <testcase name="getEngagement_engagementNotFound" classname="com.everwell.registryservice.service.EngagementServiceTest" time="0.003"/>
  <testcase name="addEngagement_success" classname="com.everwell.registryservice.service.EngagementServiceTest" time="0.003"/>
  <testcase name="updateLanguageTest_LanguageSuccessFalse" classname="com.everwell.registryservice.service.EngagementServiceTest" time="0.003"/>
</testsuite>