/Users/soumabharaychaudhuri/Development/registryservice/src/test/java/com/everwell/registryservice/JwtFiltersTest.java
/Users/soumabharaychaudhuri/Development/registryservice/src/test/java/com/everwell/registryservice/service/ConfigServiceTest.java
/Users/soumabharaychaudhuri/Development/registryservice/src/test/java/com/everwell/registryservice/service/AssociationsServiceTest.java
/Users/soumabharaychaudhuri/Development/registryservice/src/test/java/com/everwell/registryservice/service/HierarchyServiceTest.java
/Users/soumabharaychaudhuri/Development/registryservice/src/test/java/com/everwell/registryservice/controller/DeploymentControllerTest.java
/Users/soumabharaychaudhuri/Development/registryservice/src/test/java/com/everwell/registryservice/controller/TriggerControllerTest.java
/Users/soumabharaychaudhuri/Development/registryservice/src/test/java/com/everwell/registryservice/OutputStreamUtilsTest.java
/Users/soumabharaychaudhuri/Development/registryservice/src/test/java/com/everwell/registryservice/service/TaskListServiceTest.java
/Users/soumabharaychaudhuri/Development/registryservice/src/test/java/com/everwell/registryservice/service/INSServiceTest.java
/Users/soumabharaychaudhuri/Development/registryservice/src/test/java/com/everwell/registryservice/handler/SpringEventsAnalyticsHandlerTest.java
/Users/soumabharaychaudhuri/Development/registryservice/src/test/java/com/everwell/registryservice/controller/LanguageControllerTest.java
/Users/soumabharaychaudhuri/Development/registryservice/src/test/java/com/everwell/registryservice/validators/HierarchyRequestValidatorTest.java
/Users/soumabharaychaudhuri/Development/registryservice/src/test/java/com/everwell/registryservice/service/ClientServiceTest.java
/Users/soumabharaychaudhuri/Development/registryservice/src/test/java/com/everwell/registryservice/service/VendorServiceTest.java
/Users/soumabharaychaudhuri/Development/registryservice/src/test/java/com/everwell/registryservice/controller/UserControllerTest.java
/Users/soumabharaychaudhuri/Development/registryservice/src/test/java/com/everwell/registryservice/service/LanguageServiceTest.java
/Users/soumabharaychaudhuri/Development/registryservice/src/test/java/com/everwell/registryservice/service/EpisodeServiceTest.java
/Users/soumabharaychaudhuri/Development/registryservice/src/test/java/com/everwell/registryservice/service/DiseaseServiceTest.java
/Users/soumabharaychaudhuri/Development/registryservice/src/test/java/com/everwell/registryservice/controller/BaseControllerTest.java
/Users/soumabharaychaudhuri/Development/registryservice/src/test/java/com/everwell/registryservice/validators/UserRequestValidatorTest.java
/Users/soumabharaychaudhuri/Development/registryservice/src/test/java/com/everwell/registryservice/service/TriggerServiceTest.java
/Users/soumabharaychaudhuri/Development/registryservice/src/test/java/com/everwell/registryservice/controller/ConfigControllerTest.java
/Users/soumabharaychaudhuri/Development/registryservice/src/test/java/com/everwell/registryservice/controller/HierarchyControllerTest.java
/Users/soumabharaychaudhuri/Development/registryservice/src/test/java/com/everwell/registryservice/service/UserServiceTest.java
/Users/soumabharaychaudhuri/Development/registryservice/src/test/java/com/everwell/registryservice/service/EngagementServiceTest.java
/Users/soumabharaychaudhuri/Development/registryservice/src/test/java/com/everwell/registryservice/controller/ClientControllerTest.java
/Users/soumabharaychaudhuri/Development/registryservice/src/test/java/com/everwell/registryservice/handlers/EpisodeHandlerTest.java
/Users/soumabharaychaudhuri/Development/registryservice/src/test/java/com/everwell/registryservice/handler/JobHandlerTest.java
/Users/soumabharaychaudhuri/Development/registryservice/src/test/java/com/everwell/registryservice/service/DeploymentServiceTest.java
/Users/soumabharaychaudhuri/Development/registryservice/src/test/java/com/everwell/registryservice/BaseTest.java
/Users/soumabharaychaudhuri/Development/registryservice/src/test/java/com/everwell/registryservice/controller/TaskListControllerTest.java
/Users/soumabharaychaudhuri/Development/registryservice/src/test/java/com/everwell/registryservice/RedisUtilsTest.java
/Users/soumabharaychaudhuri/Development/registryservice/src/test/java/com/everwell/registryservice/UtilsTest.java
/Users/soumabharaychaudhuri/Development/registryservice/src/test/java/com/everwell/registryservice/controller/EngagementControllerTest.java
/Users/soumabharaychaudhuri/Development/registryservice/src/test/java/com/everwell/registryservice/handlers/INSHandlerTest.java
/Users/soumabharaychaudhuri/Development/registryservice/src/test/java/com/everwell/registryservice/controller/TestControllerTests.java
/Users/soumabharaychaudhuri/Development/registryservice/src/test/java/com/everwell/registryservice/service/DataGatewayServiceTest.java
