<?xml version="1.0" encoding="utf-8"?>
<svg xmlns="http://www.w3.org/2000/svg" viewBox="0 0 24 24" fill="#000000" width="24" height="24">
    <path d="M 13 5.9296875 L 6.9296875 12 L 13 18.070312 L 14.5 16.570312 L 9.9296875 12 L 14.5 7.4296875 L 13 5.9296875 z" fill="#000000"/>
</svg>
